## Interface: 60200
## Version: v6.2.3i release
## Title: Recount
## Notes: Records Damage and Healing for Graph Based Display.
## Notes-ruRU: Записывает урон и исцеления и отоброжает различные графики.
## Notes-zhCN: 基于 Graph 裤开发的伤害/治疗统计插件.
## Notes-zhTW: 圖形化顯示的傷害/治療統計插件.
## Author: Cryect, ported to 2.4 by Elsia, maintained by Resike from 5.4
## OptionalDeps:  Ace3, LibDropdown-1.0, LibSharedMedia-3.0, LibBossIDs-1.0, LibGraph-2.0
## SavedVariables: RecountDB
## SavedVariablesPerCharacter: RecountPerCharDB
## X-Curse-Packaged-Version: v6.2.3i release
## X-Curse-Project-Name: Recount
## X-Curse-Project-ID: recount
## X-Curse-Repository-ID: wow/recount/mainline

#@no-lib-strip@
embeds.xml
#@end-no-lib-strip@

locales\Recount-enUS.lua
locales\Recount-deDE.lua
locales\Recount-esES.lua
locales\Recount-esMX.lua
locales\Recount-frFR.lua
locales\Recount-ptBR.lua
locales\Recount-ruRU.lua
locales\Recount-koKR.lua
locales\Recount-zhTW.lua
locales\Recount-zhCN.lua

Recount.lua

Fonts.lua
colors.lua
Widgets.lua
WindowOrder.lua

Fights.lua
Recount_Modes.lua
TrackerModules\TrackerModule_Dispels.lua
TrackerModules\TrackerModule_Interrupts.lua
TrackerModules\TrackerModule_Resurrection.lua
TrackerModules\TrackerModule_CCBreakers.lua
TrackerModules\TrackerModule_PowerGains.lua
Tracker.lua
roster.lua
LazySync.lua
deletion.lua
zonefilters.lua
debug.lua

GUI_Main.lua
GUI_Detail.lua
GUI_DeathGraph.lua
GUI_Graph.lua
GUI_Reset.lua
GUI_Report.lua
GUI_Config.lua
GUI_Realtime.lua
